{
  "Comment.nvim": { "branch": "master", "commit": "c8043290f2d77f61025494d839d88e414608c460" },
  "LuaSnip": { "branch": "master", "commit": "a13af80734eb28f744de6c875330c9d3c24b5f3b" },
  "autoclose.nvim": { "branch": "main", "commit": "37e11589aac55b0e8810dc5865f898f9cb36fef6" },
  "cmp-nvim-lsp": { "branch": "main", "commit": "0e6b2ed705ddcff9738ec4ea838141654f12eeef" },
  "cmp_luasnip": { "branch": "master", "commit": "18095520391186d634a0045dacaa346291096566" },
  "fidget.nvim": { "branch": "main", "commit": "0ba1e16d07627532b6cae915cc992ecac249fb97" },
  "gitsigns.nvim": { "branch": "main", "commit": "4455bb5364d29ff86639dfd5533d4fe4b48192d4" },
  "indent-blankline.nvim": { "branch": "master", "commit": "7075d7861f7a6bbf0de0298c83f8a13195e6ec01" },
  "lazy.nvim": { "branch": "main", "commit": "678179543e0d27650c328d8659f2c2cab4d854ef" },
  "lazygit.nvim": { "branch": "main", "commit": "1578fa3db0a707393d690a2357e7de6a47081ce0" },
  "lualine.nvim": { "branch": "master", "commit": "05d78e9fd0cdfb4545974a5aa14b1be95a86e9c9" },
  "mason-lspconfig.nvim": { "branch": "main", "commit": "5230617372e656d4a2e1e236e03bf7e7b4b97273" },
  "mason.nvim": { "branch": "main", "commit": "7d7efc738e08fc5bee822857db45cb6103f0b0c1" },
  "neodev.nvim": { "branch": "main", "commit": "a24a910ad0842be997f34a4811c10b4f92aa53af" },
  "nvim-cmp": { "branch": "main", "commit": "09ff53ff579cfa3368f8051b0dbe88406891aabe" },
  "nvim-lspconfig": { "branch": "master", "commit": "0f598b9ab9f2a6d7e137074be99c8d89af44b990" },
  "nvim-tree.lua": { "branch": "master", "commit": "f5d970d4506f385b29534252d8c15a782fa53034" },
  "nvim-treesitter": { "branch": "master", "commit": "7be9ebd06abe2ed836abd3e91acb0b243ddcafba" },
  "nvim-treesitter-textobjects": { "branch": "master", "commit": "2d6d3c7e49a24f6ffbbf7898241fefe9784f61bd" },
  "onedark.nvim": { "branch": "master", "commit": "8ef51924724d506e515f2d3ac9f959a9eaf38f3d" },
  "plenary.nvim": { "branch": "master", "commit": "499e0743cf5e8075cd32af68baa3946a1c76adf1" },
  "telescope-fzf-native.nvim": { "branch": "main", "commit": "9bc8237565ded606e6c366a71c64c0af25cd7a50" },
  "telescope.nvim": { "branch": "master", "commit": "776b509f80dd49d8205b9b0d94485568236d1192" },
  "vim-fugitive": { "branch": "master", "commit": "5f0d280b517cacb16f59316659966c7ca5e2bea2" },
  "vim-rhubarb": { "branch": "master", "commit": "ee69335de176d9325267b0fd2597a22901d927b1" },
  "vim-sleuth": { "branch": "master", "commit": "1cc4557420f215d02c4d2645a748a816c220e99b" },
  "which-key.nvim": { "branch": "main", "commit": "e271c28118998c93a14d189af3395812a1aa646c" }
}